{
  "seed": 14658143694740669697,
  "game": {
    "Create": "Round2"
  },
  "players": [
    {
      "Tcp": {
        "host": null,
        "port": 31001,
        "accept_timeout": null,
        "timeout": null,
        "token": null
      }
    },
    {
      "Empty": null
    },
    {
      "Empty": null
    },
    {
      "Empty": null
    }
  ]
}
